{
  "recordTypeMap": {},
  "RecordSetBundles": [
    {
      "Records": [
        {
          "attributes": {
            "type": "copado__Function__c",
            "url": "/services/data/v58.0/sobjects/copado__Function__c/a0n7Q000000dSYWQA2"
          },
          "copado__API_Name__c": "cbrOrphanCleanupDXCLI",
          "copado__Description__c": "A \"functionized\" version of the original Apex script for cleaning-up Copado branches",
          "copado__Image_Name__c": "copado-multicloud-metadata:v1",
          "copado__Options__c": "[ ]",
          "copado__Parameters__c": "[ {\n  \"required\" : true,\n  \"name\" : \"git_json\",\n  \"defaultValue\" : \"{$Context.Repository.Credential}\"\n}, {\n  \"required\" : true,\n  \"name\" : \"keepBranches\",\n  \"defaultValue\" : \"['dev1','dev2','uat','main']\"\n}, {\n  \"required\" : true,\n  \"name\" : \"removeRecordsOlderThanXDays\",\n  \"defaultValue\" : \"1\"\n}, {\n  \"required\" : true,\n  \"name\" : \"validateOnly\",\n  \"defaultValue\" : \"true\"\n}, {\n  \"required\" : true,\n  \"name\" : \"repositoryId\",\n  \"defaultValue\" : \"a0s7Q000000pL6GQAU\"\n} ]",
          "copado__Script__c": "#!/usr/bin/env node\n\n//----------------------------------------------------------\n// Orphan branch cleanup\n// Author: Shweta Chadha (Copado)\n// Last Modified by: Shweta Chadha\n// Last Modified Date: 19th June, 2023\n//-----------------------------------------------------------\n\nconst { execSync } = require('child_process');\n\nconsole.log('BRANCH MGMT: clone repo...');\nexecSync('copado-git-get -c main');\n\n// Set the desired branch name patterns\nconst branchPatterns = [\"feature-\", \"promotion-\"];\n\n// Set the number of days ago for branch deletion\nconst daysAgo = 1;\n\n// Calculate the timestamp for the specified number of days ago\nconst timestamp = Math.floor(Date.UTC(new Date().getUTCFullYear(), new Date().getUTCMonth(), new Date().getUTCDate() - daysAgo) / 1000);\nconsole.log(`Timestamp calculated ${timestamp} seconds...`);\n\n// Fetch and list all branches\nexecSync('git fetch --all --prune');\nconst branchOutput = execSync('git branch -a').toString();\n\nconst branches = branchOutput.split('\\n').filter(branch => {\n  return branchPatterns.some(pattern => branch.includes(pattern));\n});\n\n// Print the branches\nif (branches.length === 0) {\n  console.log(\"No branches found with the specified patterns.\");\n} else {\n  console.log(\"Branches found with the specified patterns:\");\n  console.log(branches.join('\\n'));\n  console.log(`Deleting branches older than ${daysAgo} day(s)...`);\n\n  // Create an array to store the branches to be deleted\n  const branchesToDelete = [];\n\n  // Check branches older than the specified number of days and add them to the deletion array\n  branches.forEach(branch => {\n    const branchName = branch.trim().split('/').pop();\n    let lastCommitTimestamp;\n    try {\n      lastCommitTimestamp = parseInt(execSync(`git log -n 1 --format=\"%at\" remotes/origin/${branchName}`).toString().trim(), 10);\n    } catch (error) {\n      console.error('Error occurred while executing git log command:', error);\n      // Handle the error appropriately\n    }\n\n    if (lastCommitTimestamp < timestamp) {\n      console.log(\"lastCommitTimestamp: \" + lastCommitTimestamp);\n      console.log(\"timestamp: \" + timestamp);\n      console.log(\"branch_name: \" + branchName);\n      branchesToDelete.push(branchName);\n    } else {\n      console.log(`Skipping branch '${branchName}'. It is not older than ${daysAgo} day(s).`);\n    }\n    console.log(`lastCommitTimestamp calculated ${lastCommitTimestamp} seconds...`);\n  });\n\n  // Delete the branches in bulk\n  if (branchesToDelete.length > 0) {\n    execSync(`git push origin --delete ${branchesToDelete.join(' ')}`);\n    console.log(\"Branches deleted successfully:\");\n    console.log(branchesToDelete.join('\\n'));\n  } else {\n    console.log(\"No branches to delete.\");\n  }\n}",
          "copado__Timeout__c": 1,
          "copado__Type__c": "Custom",
          "copado__Version__c": "1.1",
          "copado__Worker_Size__c": "S",
          "Id": "a0n7Q000000dSYWQA2",
          "LastReferencedDate": "2023-07-14T13:50:29.000+0000",
          "LastViewedDate": "2023-07-14T13:50:29.000+0000",
          "Name": "Copado Orphan Branch Cleanup"
        }
      ],
      "ObjectType": "copado__Function__c"
    }
  ],
  "blobsByUID": {}
}