{
  "packageDirectories": [
    {
      "path": "force-app",
      "default": true,
      "package": "BackPromotionAutomationExt",
      "versionName": "ver 0.1",
      "versionNumber": "0.1.0.NEXT",
      "versionDescription": "Extension to aautomate back promotions for those Copado First Gen pipelines without any Change Data Capture entities available",
      "dependencies": [
        {
          "package": "Copado Deployer@20.39.0.0"
        }
      ]
    }
  ],
  "name": "BackPromotionAutomation",
  "namespace": "",
  "sfdcLoginUrl": "https://login.salesforce.com",
  "sourceApiVersion": "57.0",
  "packageAliases": {
    "Copado Deployer@20.39.0.0": "04t5p00000178YtAAI",
    "BackPromotionAutomationExt": "0Ho7R0000008OYXSA2",
    "BackPromotionAutomationExt@0.1.0-1-main": "04t7R0000022YUIQA2",
    "BackPromotionAutomationExt@1.0.0-main": "04t7R0000022ZQoQAM",
    "BackPromotionAutomationExt@2.0.0-main": "04t7R0000022bM2QAI",
    "BackPromotionAutomationExt@3.0.0-main": "04t7R0000022bMCQAY",
    "BackPromotionAutomationExt@4.0.0-main": "04t7R0000022bMHQAY"
  }
}